{"count":78,"next":"https://ll.thespacedevs.com/2.2.0/event/upcoming/?limit=3&offset=3","previous":null,"results":[{"id":297,"url":"https://ll.thespacedevs.com/2.2.0/event/297/","slug":"progress-ms-19-docking","name":"Progress MS-19 Docking","updates":[],"type":{"id":2,"name":"Docking"},"description":"The Progress MS-19 spacecraft is scheduled to autonomously dock to the Poisk module of the ISS.","webcast_live":false,"location":"International Space Station","news_url":null,"video_url":"https://www.youtube.com/watch?v=21X5lGlDOfg","feature_image":"https://spacelaunchnow-prod-east.nyc3.digitaloceanspaces.com/media/event_images/progress_ms-19__image_20210519134945.jpg","date":"2022-02-17T07:08:00Z","launches":[{"id":"b89e65d2-db7d-4617-9f47-e26fe954ba0e","url":"https://ll.thespacedevs.com/2.2.0/launch/b89e65d2-db7d-4617-9f47-e26fe954ba0e/","slug":"soyuz-21a-progress-ms-19-80p","name":"Soyuz 2.1a | Progress MS-19 (80P)","status":{"id":1,"name":"Go for Launch","abbrev":"Go","description":"Current T-0 confirmed by official or reliable sources."},"last_updated":"2022-01-11T10:55:15Z","net":"2022-02-15T04:25:00Z","window_end":"2022-02-15T04:25:00Z","window_start":"2022-02-15T04:25:00Z","probability":null,"holdreason":"","failreason":"","hashtag":null,"launch_service_provider":{"id":63,"url":"https://ll.thespacedevs.com/2.2.0/agencies/63/","name":"Russian Federal Space Agency (ROSCOSMOS)","type":"Government"},"rocket":{"id":2890,"configuration":{"id":24,"url":"https://ll.thespacedevs.com/2.2.0/config/launcher/24/","name":"Soyuz 2.1a","family":"Soyuz","full_name":"Soyuz 2.1a","variant":""}},"mission":{"id":1307,"name":"Progress MS-19 (80P)","description":"Progress resupply mission to the International Space Station.","launch_designator":null,"type":"Resupply","orbit":{"id":8,"name":"Low Earth Orbit","abbrev":"LEO"}},"pad":{"id":20,"url":"https://ll.thespacedevs.com/2.2.0/pad/20/","agency_id":null,"name":"31/6","info_url":null,"wiki_url":"","map_url":"http://maps.google.com/maps?q=45.996+N,+63.564+E","latitude":"45.996034","longitude":"63.564003","location":{"id":15,"url":"https://ll.thespacedevs.com/2.2.0/location/15/","name":"Baikonur Cosmodrome, Republic of Kazakhstan","country_code":"KAZ","map_image":"https://spacelaunchnow-prod-east.nyc3.digitaloceanspaces.com/media/launch_images/location_15_20200803142517.jpg","total_launch_count":1529,"total_landing_count":0},"map_image":"https://spacelaunchnow-prod-east.nyc3.digitaloceanspaces.com/media/launch_images/pad_20_20200803143516.jpg","total_launch_count":399},"webcast_live":false,"image":"https://spacelaunchnow-prod-east.nyc3.digitaloceanspaces.com/media/launcher_images/soyuz_2.1a_image_20201013143850.jpg","infographic":null,"program":[{"id":17,"url":"https://ll.thespacedevs.com/2.2.0/program/17/","name":"International Space Station","description":"The International Space Station programme is tied together by a complex set of legal, political and financial agreements between the sixteen nations involved in the project, governing ownership of the various components, rights to crewing and utilization, and responsibilities for crew rotation and resupply of the International Space Station. It was conceived in 1984 by President Ronald Reagan, during the Space Station Freedom project as it was originally called.","agencies":[{"id":16,"url":"https://ll.thespacedevs.com/2.2.0/agencies/16/","name":"Canadian Space Agency","type":"Government"},{"id":27,"url":"https://ll.thespacedevs.com/2.2.0/agencies/27/","name":"European Space Agency","type":"Multinational"},{"id":37,"url":"https://ll.thespacedevs.com/2.2.0/agencies/37/","name":"Japan Aerospace Exploration Agency","type":"Government"},{"id":44,"url":"https://ll.thespacedevs.com/2.2.0/agencies/44/","name":"National Aeronautics and Space Administration","type":"Government"},{"id":63,"url":"https://ll.thespacedevs.com/2.2.0/agencies/63/","name":"Russian Federal Space Agency (ROSCOSMOS)","type":"Government"}],"image_url":"https://spacelaunchnow-prod-east.nyc3.digitaloceanspaces.com/media/program_images/international2_program_20201129184745.png","start_date":"1998-11-20T06:40:00Z","end_date":null,"info_url":"https://www.nasa.gov/mission_pages/station/main/index.html","wiki_url":"https://en.wikipedia.org/wiki/International_Space_Station_programme","mission_patches":[]}]}],"expeditions":[],"spacestations":[{"id":4,"url":"https://ll.thespacedevs.com/2.2.0/spacestation/4/","name":"International Space Station","status":{"id":1,"name":"Active"},"founded":"1998-11-20","description":"The International Space Station (ISS) is a space station, or a habitable artificial satellite, in low Earth orbit. Its first component was launched into orbit in 1998, with the first long-term residents arriving in November 2000. It has been inhabited continuously since that date. The last pressurised module was fitted in 2011, and an experimental inflatable space habitat was added in 2016. The station is expected to operate until 2030. Development and assembly of the station continues, with several new elements scheduled for launch in 2019. The ISS is the largest human-made body in low Earth orbit and can often be seen with the naked eye from Earth. The ISS consists of pressurised habitation modules, structural trusses, solar arrays, radiators, docking ports, experiment bays and robotic arms. ISS components have been launched by Russian Proton and Soyuz rockets, and American Space Shuttles.","orbit":"Low Earth Orbit","image_url":"https://spacelaunchnow-prod-east.nyc3.digitaloceanspaces.com/media/spacestation_images/international2520space2520station_image_20190220215716.jpeg"}],"program":[{"id":17,"url":"https://ll.thespacedevs.com/2.2.0/program/17/","name":"International Space Station","description":"The International Space Station programme is tied together by a complex set of legal, political and financial agreements between the sixteen nations involved in the project, governing ownership of the various components, rights to crewing and utilization, and responsibilities for crew rotation and resupply of the International Space Station. It was conceived in 1984 by President Ronald Reagan, during the Space Station Freedom project as it was originally called.","agencies":[{"id":16,"url":"https://ll.thespacedevs.com/2.2.0/agencies/16/","name":"Canadian Space Agency","type":"Government"},{"id":27,"url":"https://ll.thespacedevs.com/2.2.0/agencies/27/","name":"European Space Agency","type":"Multinational"},{"id":37,"url":"https://ll.thespacedevs.com/2.2.0/agencies/37/","name":"Japan Aerospace Exploration Agency","type":"Government"},{"id":44,"url":"https://ll.thespacedevs.com/2.2.0/agencies/44/","name":"National Aeronautics and Space Administration","type":"Government"},{"id":63,"url":"https://ll.thespacedevs.com/2.2.0/agencies/63/","name":"Russian Federal Space Agency (ROSCOSMOS)","type":"Government"}],"image_url":"https://spacelaunchnow-prod-east.nyc3.digitaloceanspaces.com/media/program_images/international2_program_20201129184745.png","start_date":"1998-11-20T06:40:00Z","end_date":null,"info_url":"https://www.nasa.gov/mission_pages/station/main/index.html","wiki_url":"https://en.wikipedia.org/wiki/International_Space_Station_programme","mission_patches":[]}]},{"id":298,"url":"https://ll.thespacedevs.com/2.2.0/event/298/","slug":"ng-17-cygnus-berthing","name":"NG-17 Cygnus Berthing","updates":[],"type":{"id":4,"name":"Spacecraft Berthing"},"description":"NASA TV will livestream the rendezvous and capture of Northrop Grumman's NG-17 Cygnus cargo craft to the International Space Station.","webcast_live":false,"location":"International Space Station","news_url":null,"video_url":"https://www.youtube.com/watch?v=21X5lGlDOfg","feature_image":"https://spacelaunchnow-prod-east.nyc3.digitaloceanspaces.com/media/event_images/ng-17_cygnus_be_image_20210519135240.jpg","date":"2022-02-21T00:00:00Z","launches":[{"id":"7005f701-25f1-4198-ab0a-362b48e13cdd","url":"https://ll.thespacedevs.com/2.2.0/launch/7005f701-25f1-4198-ab0a-362b48e13cdd/","slug":"antares-230-cygnus-crs-2-ng-17-ss-piers-sellers","name":"Antares 230+ | Cygnus CRS-2 NG-17 (S.S. Piers Sellers)","status":{"id":1,"name":"Go for Launch","abbrev":"Go","description":"Current T-0 confirmed by official or reliable sources."},"last_updated":"2022-01-26T20:40:40Z","net":"2022-02-19T17:39:00Z","window_end":"2022-02-19T17:39:00Z","window_start":"2022-02-19T17:39:00Z","probability":null,"holdreason":"","failreason":"","hashtag":null,"launch_service_provider":{"id":257,"url":"https://ll.thespacedevs.com/2.2.0/agencies/257/","name":"Northrop Grumman Innovation Systems","type":"Commercial"},"rocket":{"id":2891,"configuration":{"id":210,"url":"https://ll.thespacedevs.com/2.2.0/config/launcher/210/","name":"Antares 230+","family":"Antares","full_name":"Antares 230+","variant":"230+"}},"mission":{"id":1308,"name":"Cygnus CRS-2 NG-17 (S.S. Piers Sellers)","description":"This is the 17th flight of the Orbital ATK's uncrewed resupply spacecraft Cygnus and its 16th flight to the International Space Station under the Commercial Resupply Services contract with NASA. This Cygnus spacecraft is named after American astronaut and climate scientist Piers Sellers. Sellers was a part of three Space Shuttle missions tasked with assembly of the International Space Station.","launch_designator":null,"type":"Resupply","orbit":{"id":8,"name":"Low Earth Orbit","abbrev":"LEO"}},"pad":{"id":76,"url":"https://ll.thespacedevs.com/2.2.0/pad/76/","agency_id":44,"name":"Launch Area 0 A","info_url":null,"wiki_url":"","map_url":"http://maps.google.com/maps?q=37.8337+N,+75.4881+W","latitude":"37.8337","longitude":"-75.4881","location":{"id":21,"url":"https://ll.thespacedevs.com/2.2.0/location/21/","name":"Wallops Island, Virginia, USA","country_code":"USA","map_image":"https://spacelaunchnow-prod-east.nyc3.digitaloceanspaces.com/media/launch_images/location_21_20200803142423.jpg","total_launch_count":71,"total_landing_count":0},"map_image":"https://spacelaunchnow-prod-east.nyc3.digitaloceanspaces.com/media/launch_images/pad_76_20200803143538.jpg","total_launch_count":16},"webcast_live":false,"image":"https://spacelaunchnow-prod-east.nyc3.digitaloceanspaces.com/media/launcher_images/antares2520230252b_image_20191102024633.jpeg","infographic":null,"program":[{"id":11,"url":"https://ll.thespacedevs.com/2.2.0/program/11/","name":"Commercial Resupply Services","description":"Commercial Resupply Services (CRS) are a series of flights awarded by NASA for the delivery of cargo and supplies to the International Space Station.The first CRS contracts were signed in 2008 and awarded $1.6 billion to SpaceX for twelve cargo Dragon and $1.9 billion to Orbital Sciences for eight Cygnus flights, covering deliveries to 2016. The Falcon 9 and Antares rockets were also developed under the CRS program to deliver cargo spacecraft to the ISS.","agencies":[{"id":44,"url":"https://ll.thespacedevs.com/2.2.0/agencies/44/","name":"National Aeronautics and Space Administration","type":"Government"},{"id":257,"url":"https://ll.thespacedevs.com/2.2.0/agencies/257/","name":"Northrop Grumman Innovation Systems","type":"Commercial"},{"id":1020,"url":"https://ll.thespacedevs.com/2.2.0/agencies/1020/","name":"Sierra Nevada Corporation","type":"Commercial"},{"id":121,"url":"https://ll.thespacedevs.com/2.2.0/agencies/121/","name":"SpaceX","type":"Commercial"}],"image_url":"https://spacelaunchnow-prod-east.nyc3.digitaloceanspaces.com/media/program_images/commercial2520_program_20201129212219.png","start_date":"2008-12-23T00:00:00Z","end_date":null,"info_url":null,"wiki_url":"https://en.wikipedia.org/wiki/Commercial_Resupply_Services#Commercial_Resupply_Services","mission_patches":[]}]}],"expeditions":[],"spacestations":[{"id":4,"url":"https://ll.thespacedevs.com/2.2.0/spacestation/4/","name":"International Space Station","status":{"id":1,"name":"Active"},"founded":"1998-11-20","description":"The International Space Station (ISS) is a space station, or a habitable artificial satellite, in low Earth orbit. Its first component was launched into orbit in 1998, with the first long-term residents arriving in November 2000. It has been inhabited continuously since that date. The last pressurised module was fitted in 2011, and an experimental inflatable space habitat was added in 2016. The station is expected to operate until 2030. Development and assembly of the station continues, with several new elements scheduled for launch in 2019. The ISS is the largest human-made body in low Earth orbit and can often be seen with the naked eye from Earth. The ISS consists of pressurised habitation modules, structural trusses, solar arrays, radiators, docking ports, experiment bays and robotic arms. ISS components have been launched by Russian Proton and Soyuz rockets, and American Space Shuttles.","orbit":"Low Earth Orbit","image_url":"https://spacelaunchnow-prod-east.nyc3.digitaloceanspaces.com/media/spacestation_images/international2520space2520station_image_20190220215716.jpeg"}],"program":[{"id":11,"url":"https://ll.thespacedevs.com/2.2.0/program/11/","name":"Commercial Resupply Services","description":"Commercial Resupply Services (CRS) are a series of flights awarded by NASA for the delivery of cargo and supplies to the International Space Station.The first CRS contracts were signed in 2008 and awarded $1.6 billion to SpaceX for twelve cargo Dragon and $1.9 billion to Orbital Sciences for eight Cygnus flights, covering deliveries to 2016. The Falcon 9 and Antares rockets were also developed under the CRS program to deliver cargo spacecraft to the ISS.","agencies":[{"id":44,"url":"https://ll.thespacedevs.com/2.2.0/agencies/44/","name":"National Aeronautics and Space Administration","type":"Government"},{"id":257,"url":"https://ll.thespacedevs.com/2.2.0/agencies/257/","name":"Northrop Grumman Innovation Systems","type":"Commercial"},{"id":1020,"url":"https://ll.thespacedevs.com/2.2.0/agencies/1020/","name":"Sierra Nevada Corporation","type":"Commercial"},{"id":121,"url":"https://ll.thespacedevs.com/2.2.0/agencies/121/","name":"SpaceX","type":"Commercial"}],"image_url":"https://spacelaunchnow-prod-east.nyc3.digitaloceanspaces.com/media/program_images/commercial2520_program_20201129212219.png","start_date":"2008-12-23T00:00:00Z","end_date":null,"info_url":null,"wiki_url":"https://en.wikipedia.org/wiki/Commercial_Resupply_Services#Commercial_Resupply_Services","mission_patches":[]},{"id":17,"url":"https://ll.thespacedevs.com/2.2.0/program/17/","name":"International Space Station","description":"The International Space Station programme is tied together by a complex set of legal, political and financial agreements between the sixteen nations involved in the project, governing ownership of the various components, rights to crewing and utilization, and responsibilities for crew rotation and resupply of the International Space Station. It was conceived in 1984 by President Ronald Reagan, during the Space Station Freedom project as it was originally called.","agencies":[{"id":16,"url":"https://ll.thespacedevs.com/2.2.0/agencies/16/","name":"Canadian Space Agency","type":"Government"},{"id":27,"url":"https://ll.thespacedevs.com/2.2.0/agencies/27/","name":"European Space Agency","type":"Multinational"},{"id":37,"url":"https://ll.thespacedevs.com/2.2.0/agencies/37/","name":"Japan Aerospace Exploration Agency","type":"Government"},{"id":44,"url":"https://ll.thespacedevs.com/2.2.0/agencies/44/","name":"National Aeronautics and Space Administration","type":"Government"},{"id":63,"url":"https://ll.thespacedevs.com/2.2.0/agencies/63/","name":"Russian Federal Space Agency (ROSCOSMOS)","type":"Government"}],"image_url":"https://spacelaunchnow-prod-east.nyc3.digitaloceanspaces.com/media/program_images/international2_program_20201129184745.png","start_date":"1998-11-20T06:40:00Z","end_date":null,"info_url":"https://www.nasa.gov/mission_pages/station/main/index.html","wiki_url":"https://en.wikipedia.org/wiki/International_Space_Station_programme","mission_patches":[]}]},{"id":338,"url":"https://ll.thespacedevs.com/2.2.0/event/338/","slug":"us-eva-79","name":"US EVA-79","updates":[],"type":{"id":3,"name":"EVA"},"description":"Two astronauts will venture outside the orbiting outpost to continue installation of the new iROSA solar arrays.","webcast_live":false,"location":"International Space Station","news_url":null,"video_url":"https://www.youtube.com/watch?v=21X5lGlDOfg","feature_image":"https://spacelaunchnow-prod-east.nyc3.digitaloceanspaces.com/media/event_images/us_eva-79_image_20210922162918.jpg","date":"2022-02-28T00:00:00Z","launches":[],"expeditions":[{"id":142,"url":"https://ll.thespacedevs.com/2.2.0/expedition/142/","name":"Expedition 66","start":"2021-10-17T01:14:00Z","end":null,"spacestation":{"id":4,"url":"https://ll.thespacedevs.com/2.2.0/spacestation/4/","name":"International Space Station","status":{"id":1,"name":"Active"},"orbit":"Low Earth Orbit","image_url":"https://spacelaunchnow-prod-east.nyc3.digitaloceanspaces.com/media/spacestation_images/international2520space2520station_image_20190220215716.jpeg"},"mission_patches":[{"id":95,"name":"Expedition 66 Mission Patch","priority":10,"image_url":"https://spacelaunchnow-prod-east.nyc3.digitaloceanspaces.com/media/mission_patch_images/expedition2520_mission_patch_20211017070255.png","agency":{"id":44,"url":"https://ll.thespacedevs.com/2.2.0/agencies/44/","name":"National Aeronautics and Space Administration","type":"Government"}}]}],"spacestations":[{"id":4,"url":"https://ll.thespacedevs.com/2.2.0/spacestation/4/","name":"International Space Station","status":{"id":1,"name":"Active"},"founded":"1998-11-20","description":"The International Space Station (ISS) is a space station, or a habitable artificial satellite, in low Earth orbit. Its first component was launched into orbit in 1998, with the first long-term residents arriving in November 2000. It has been inhabited continuously since that date. The last pressurised module was fitted in 2011, and an experimental inflatable space habitat was added in 2016. The station is expected to operate until 2030. Development and assembly of the station continues, with several new elements scheduled for launch in 2019. The ISS is the largest human-made body in low Earth orbit and can often be seen with the naked eye from Earth. The ISS consists of pressurised habitation modules, structural trusses, solar arrays, radiators, docking ports, experiment bays and robotic arms. ISS components have been launched by Russian Proton and Soyuz rockets, and American Space Shuttles.","orbit":"Low Earth Orbit","image_url":"https://spacelaunchnow-prod-east.nyc3.digitaloceanspaces.com/media/spacestation_images/international2520space2520station_image_20190220215716.jpeg"}],"program":[{"id":17,"url":"https://ll.thespacedevs.com/2.2.0/program/17/","name":"International Space Station","description":"The International Space Station programme is tied together by a complex set of legal, political and financial agreements between the sixteen nations involved in the project, governing ownership of the various components, rights to crewing and utilization, and responsibilities for crew rotation and resupply of the International Space Station. It was conceived in 1984 by President Ronald Reagan, during the Space Station Freedom project as it was originally called.","agencies":[{"id":16,"url":"https://ll.thespacedevs.com/2.2.0/agencies/16/","name":"Canadian Space Agency","type":"Government"},{"id":27,"url":"https://ll.thespacedevs.com/2.2.0/agencies/27/","name":"European Space Agency","type":"Multinational"},{"id":37,"url":"https://ll.thespacedevs.com/2.2.0/agencies/37/","name":"Japan Aerospace Exploration Agency","type":"Government"},{"id":44,"url":"https://ll.thespacedevs.com/2.2.0/agencies/44/","name":"National Aeronautics and Space Administration","type":"Government"},{"id":63,"url":"https://ll.thespacedevs.com/2.2.0/agencies/63/","name":"Russian Federal Space Agency (ROSCOSMOS)","type":"Government"}],"image_url":"https://spacelaunchnow-prod-east.nyc3.digitaloceanspaces.com/media/program_images/international2_program_20201129184745.png","start_date":"1998-11-20T06:40:00Z","end_date":null,"info_url":"https://www.nasa.gov/mission_pages/station/main/index.html","wiki_url":"https://en.wikipedia.org/wiki/International_Space_Station_programme","mission_patches":[]}]}]}